Place,Name,BirthDate,Sex,BirthYear,Age,State,Equipment,Division,BodyweightKg,WeightClassKg,Squat1Kg,Squat2Kg,Squat3Kg,Best3SquatKg,Bench1Kg,Bench2Kg,Bench3Kg,Best3BenchKg,Deadlift1Kg,Deadlift2Kg,Deadlift3Kg,Best3DeadliftKg,TotalKg,Event,Tested
1,Kylie Nicole Mcknight,,F,2008,15,UT,Raw,Teen 13-15,84.4,90,102.5,-110,-110,102.5,42.5,-47.5,-47.5,42.5,120,130,-135,130,275,SBD,Yes
1,Cecilia Moore,,F,2007,16,UT,Raw,Teen 16-17,59.2,60,-80,85,92.5,92.5,47.5,52.5,60,60,92.5,102.5,110,110,262.5,SBD,Yes
1,Olivia Pierce,,F,2007,16,UT,Raw,Teen 16-17,69.6,75,67.5,72.5,77.5,77.5,35,37.5,-45,37.5,95,97.5,-102.5,97.5,212.5,SBD,Yes
1,Brynli Allen,,F,2004,19,UT,Raw,Teen 18-19,71.3,75,105,120,-125,120,80,-87.5,-90,80,-110,120,127.5,127.5,327.5,SBD,Yes
1,Alexis Smith,,F,2004,18,UT,Raw,Teen 18-19,79.8,82.5,110,115,-122.5,115,65,-72.5,-72.5,65,115,125,132.5,132.5,312.5,SBD,Yes
1,Brooklyn Mohamud,,F,2000,23,UT,Raw,Juniors 20-23,63,67.5,130,140,-145,140,72.5,75,80,80,150,165,-172.5,165,385,SBD,Yes
1,Ashlynn Mcleod,,F,2000,23,UT,Raw,Juniors 20-23,74.5,75,102.5,112.5,115,115,57.5,60,-65,60,102.5,115,-120,115,290,SBD,Yes
1,Ashlyn Erickson,,F,2002,21,UT,Raw,Juniors 20-23,104.6,110,142.5,147.5,155,155,70,72.5,77.5,77.5,155,170,-172.5,170,402.5,SBD,Yes
DQ,Nayeli Ayala,,F,2001,22,UT,Raw,Juniors 20-23,104.9,110,-125,130,135,135,-85,-85,-87.5,,125,132.5,145,145,,SBD,Yes
DQ,Anjelina Nielsen,,F,2000,23,UT,Raw,Juniors 20-23,116.1,125,-125,-125,-130,,-52.5,-57.5,-60,,130,137.5,-152.5,137.5,,SBD,Yes
DQ,Amy Jensen,,F,1974,49,UT,Raw,Masters 45-49,59.6,60,-65,-75,-77.5,,-40,42.5,-50,42.5,82.5,97.5,100,100,,SBD,Yes
1,Joetta Neely,,F,1999,24,UT,Raw,Open,61.3,67.5,90,105,-115,105,47.5,55,-60,55,-115,115,120,120,280,SBD,Yes
1,Marilyn Fernandez,,F,1993,30,UT,Raw,Open,73.9,75,112.5,-115,-115,112.5,62.5,-67.5,67.5,67.5,137.5,142.5,-150,142.5,322.5,SBD,Yes
1,Sarah Oakeson,,F,1995,28,UT,Raw,Open,79.1,82.5,100,107.5,-115,107.5,62.5,-67.5,-70,62.5,105,112.5,-120,112.5,282.5,SBD,Yes
1,Alyssa Harrah,,F,1998,25,UT,Raw,Open,99.1,100,97.5,-102.5,102.5,102.5,-45,47.5,55,55,115,122.5,130,130,287.5,SBD,Yes
1,MJ Martinez,,F,1984,39,UT,Raw,Submasters 35-39,59.9,60,-95,100,-107.5,100,52.5,57.5,-60,57.5,110,117.5,120,120,277.5,SBD,Yes
1,Amanda Walker #3,,F,1986,36,UT,Raw,Submasters 35-39,85.8,90,132.5,-142.5,145,145,72.5,-77.5,-77.5,72.5,115,120,125,125,342.5,SBD,Yes
1,Linda Mckenzie Bergloff,,F,1981,42,,Raw,Masters 40-44,63.2,67.5,52.5,-60,60,60,37.5,-45,-45,37.5,72.5,82.5,-92.5,82.5,180,SBD,
1,Tristin Valencia,,F,2005,18,UT,Raw,Teen 18-19,80.3,82.5,,,,,-42.5,45,-50,45,97.5,102.5,110,110,155,BD,Yes
DQ,Anjelina Nielsen,,F,2000,23,UT,Raw,Juniors 20-23,116.1,125,,,,,-52.5,-57.5,-60,,130,137.5,-152.5,137.5,,BD,Yes
1,Amy Jensen,,F,1974,49,UT,Raw,Masters 45-49,59.6,60,,,,,-40,42.5,-50,42.5,82.5,97.5,100,100,142.5,BD,Yes
1,Anjelina Nielsen,,F,2000,23,UT,Raw,Juniors 20-23,116.1,125,,,,,,,,,130,137.5,-152.5,137.5,137.5,D,Yes
1,Jill Carver,,F,1990,33,,Raw,Open,66.2,67.5,,,,,,,,,97.5,105,112.5,112.5,112.5,D,Yes
DQ,Tristin Valencia,,F,2005,18,UT,Wraps,Teen 18-19,80.3,82.5,-70,-72.5,-72.5,,-42.5,45,-50,45,97.5,102.5,110,110,,SBD,Yes
1,Gavin Gamsby,,M,2007,16,UT,Raw,Teen 16-17,78.3,82.5,-180,180,190,190,100,110,-120,110,202.5,215,-227.5,215,515,SBD,Yes
1,Tolman David Walker,,M,2004,19,UT,Raw,Teen 18-19,95.5,100,-170,180,-200,180,-110,115,-122.5,115,170,-190,-190,170,465,SBD,Yes
1,Brycen Kimber Klinkowski,,M,2002,21,UT,Raw,Juniors 20-23,74.5,75,155,162.5,-167.5,162.5,80,82.5,-87.5,82.5,-210,220,227.5,227.5,472.5,SBD,Yes
2,Koby Anderson,,M,2000,23,UT,Raw,Juniors 20-23,70.3,75,-132.5,140,145,145,100,105,-107.5,105,175,-190,195,195,445,SBD,Yes
DQ,Daniel Gibson,,M,2001,22,UT,Raw,Juniors 20-23,77.6,82.5,152.5,157.5,162.5,162.5,-102.5,107.5,-110,107.5,-200,-200,-200,,,SBD,Yes
1,Isaac Galvez,,M,2000,23,UT,Raw,Juniors 20-23,85,90,167.5,-177.5,182.5,182.5,117.5,125,-130,125,195,207.5,215,215,522.5,SBD,Yes
1,Tate Nelson,,M,2001,22,AZ,Raw,Juniors 20-23,104.9,110,-190,202.5,212.5,212.5,100,107.5,115,115,200,215,227.5,227.5,555,SBD,Yes
1,Mills Ellenberg,,M,1999,23,UT,Raw,Juniors 20-23,120.8,125,190,205,215,215,125,132.5,140,140,215,232.5,-242.5,232.5,587.5,SBD,Yes
2,Parker Gilbert,,M,2001,21,,Raw,Juniors 20-23,118.7,125,185,195,-200,195,145,147.5,-150,147.5,215,227.5,237.5,237.5,580,SBD,Yes
1,Cameron Jay Anderson,,M,1998,25,UT,Raw,Open,82.2,82.5,182.5,195,205,205,125,132.5,140,140,230,242.5,255,255,600,SBD,Yes
1,Devin Ekins,,M,1999,24,UT,Raw,Open,86,90,-147.5,152.5,157.5,157.5,95,-102.5,110,110,155,-162.5,167.5,167.5,435,SBD,Yes
1,Samuel Nielsen,,M,1997,26,UT,Raw,Open,137.7,140,170,177.5,182.5,182.5,90,97.5,-100,97.5,167.5,182.5,190,190,470,SBD,Yes
1,Gage Beachler,,M,2003,19,,Raw,Teen 18-19,102.1,110,-215,-215,227.5,227.5,135,142.5,-150,142.5,-240,-250,250,250,620,SBD,
DQ,Nathan Broschinsky,,M,1981,42,,Raw,Masters 40-44,105.8,110,-157.5,-170,-170,,120,-132.5,132.5,132.5,-185,-202.5,-210,,,SBD,
1,Elijah Johnson,,M,1986,37,,Raw,Open,89.1,90,227.5,237.5,245,245,112.5,120,125,125,-260,260,-272.5,260,630,SBD,
DQ,Jaren English,,M,1999,24,,Raw,Open,88.8,90,127.5,-135,-145,127.5,-115,-120,-120,,157.5,165,172.5,172.5,,SBD,
1,Kyle Larsen,,M,1992,31,,Raw,Open,107.2,110,225,235,245,245,140,150,-160,150,227.5,242.5,257.5,257.5,652.5,SBD,
2,Gage Beachler,,M,2003,19,,Raw,Open,102.1,110,-215,-215,227.5,227.5,135,142.5,-150,142.5,-240,-250,250,250,620,SBD,
DQ,Jad Alame,,M,1993,30,,Raw,Open,108.3,110,,,,,,,,,347.5,370,385,385,,SBD,
1,Cody Godfrey,,M,,,,Raw,Open,118.4,125,265,287.5,300,300,-180,190,-197.5,190,247.5,267.5,280,280,770,SBD,
DQ,Nathan Broschinsky,,M,1981,42,,Raw,Masters 40-44,105.8,110,,,,,120,-132.5,132.5,132.5,-185,-202.5,-210,,,BD,Yes
1,Jad Alame,,M,1993,30,,Raw,Open,108.3,110,,,,,,,,,347.5,370,385,385,385,D,
